{
  "state": "success",
  "desc": "获取商品列表成功",
  "data": {
    "total": 61392,
    "per_page": 8,
    "current_page": 1,
    "last_page": 7674,
    "data": [
      {
        "cat_id": 635,
        "brand_id": 8359,
        "goods_id": 90291,
        "goods_name": "钎金鸟黑色高跟鞋女细跟韩版少女百搭尖头中空单鞋夏季2017新款潮",
        "goods_thumb": "http://eggou.oss-cn-shenzhen.aliyuncs.com/images/201707/goods_img/1499419305.jpg",
        "goods_img": "http://eggou.oss-cn-shenzhen.aliyuncs.com/images/201707/goods_img/1499419305.jpg",
        "shop_price": "229.00",
        "market_price": "0.00",
        "promote_price": "0.00",
        "sales_volume": 1707,
        "comments_number": 0,
        "brokerage": "0.00"
      },
      {
        "cat_id": 635,
        "brand_id": 8359,
        "goods_id": 90290,
        "goods_name": "钎金鸟黑色高跟鞋女细跟韩版少女百搭尖头中空单鞋夏季2017新款潮",
        "goods_thumb": "http://eggou.oss-cn-shenzhen.aliyuncs.com/images/201707/thumb_img/90290_thumb_G_1499419008777.jpg",
        "goods_img": "http://eggou.oss-cn-shenzhen.aliyuncs.com/images/201707/goods_img/90290_G_1499419008836.jpg",
        "shop_price": "229.00",
        "market_price": "0.00",
        "promote_price": "0.00",
        "sales_volume": 1511,
        "comments_number": 0,
        "brokerage": "0.00"
      },
      {
        "cat_id": 635,
        "brand_id": 8359,
        "goods_id": 90289,
        "goods_name": "钎金鸟黑色高跟鞋女细跟韩版少女百搭尖头中空单鞋夏季2017新款潮",
        "goods_thumb": "http://eggou.oss-cn-shenzhen.aliyuncs.com/images/201707/goods_img/1499418587.jpg",
        "goods_img": "http://eggou.oss-cn-shenzhen.aliyuncs.com/images/201707/goods_img/1499418587.jpg",
        "shop_price": "229.00",
        "market_price": "0.00",
        "promote_price": "0.00",
        "sales_volume": 1156,
        "comments_number": 0,
        "brokerage": "0.00"
      },
      {
        "cat_id": 635,
        "brand_id": 8359,
        "goods_id": 90288,
        "goods_name": "钎金鸟黑色高跟鞋女细跟韩版少女百搭尖头中空单鞋夏季2017新款潮",
        "goods_thumb": "http://eggou.oss-cn-shenzhen.aliyuncs.com//images/201707/goods_img/1499396304.jpg",
        "goods_img": "http://eggou.oss-cn-shenzhen.aliyuncs.com//images/201707/goods_img/1499396304.jpg",
        "shop_price": "229.00",
        "market_price": "0.00",
        "promote_price": "0.00",
        "sales_volume": 1644,
        "comments_number": 0,
        "brokerage": "0.00"
      },
      {
        "cat_id": 632,
        "brand_id": 8359,
        "goods_id": 90287,
        "goods_name": "钎金鸟黑色高跟鞋女细跟韩版少女百搭尖头中空单鞋夏季2017新款潮",
        "goods_thumb": "http://eggou.oss-cn-shenzhen.aliyuncs.com//images/201707/goods_img/1499396254.jpg",
        "goods_img": "http://eggou.oss-cn-shenzhen.aliyuncs.com//images/201707/goods_img/1499396254.jpg",
        "shop_price": "229.00",
        "market_price": "0.00",
        "promote_price": "0.00",
        "sales_volume": 1573,
        "comments_number": 0,
        "brokerage": "0.00"
      },
      {
        "cat_id": 636,
        "brand_id": 8359,
        "goods_id": 90286,
        "goods_name": "钎金鸟黑色高跟鞋女细跟韩版少女百搭尖头中空单鞋夏季2017新款潮",
        "goods_thumb": "http://eggou.oss-cn-shenzhen.aliyuncs.com//images/201707/goods_img/1499396163.jpg",
        "goods_img": "http://eggou.oss-cn-shenzhen.aliyuncs.com//images/201707/goods_img/1499396163.jpg",
        "shop_price": "229.00",
        "market_price": "0.00",
        "promote_price": "0.00",
        "sales_volume": 1165,
        "comments_number": 0,
        "brokerage": "0.00"
      },
      {
        "cat_id": 635,
        "brand_id": 8359,
        "goods_id": 90285,
        "goods_name": "钎金鸟黑色高跟鞋女细跟韩版少女百搭尖头中空单鞋夏季2017新款潮",
        "goods_thumb": "http://eggou.oss-cn-shenzhen.aliyuncs.com//images/201707/goods_img/1499394284.jpg",
        "goods_img": "http://eggou.oss-cn-shenzhen.aliyuncs.com//images/201707/goods_img/1499394284.jpg",
        "shop_price": "229.00",
        "market_price": "0.00",
        "promote_price": "0.00",
        "sales_volume": 1145,
        "comments_number": 0,
        "brokerage": "0.00"
      },
      {
        "cat_id": 308,
        "brand_id": 8359,
        "goods_id": 90284,
        "goods_name": "钎金鸟黑色高跟鞋女细跟韩版少女百搭尖头中空单鞋夏季2017新款潮",
        "goods_thumb": "http://eggou.oss-cn-shenzhen.aliyuncs.com//images/201707/goods_img/1499394212.jpg",
        "goods_img": "http://eggou.oss-cn-shenzhen.aliyuncs.com//images/201707/goods_img/1499394212.jpg",
        "shop_price": "229.00",
        "market_price": "0.00",
        "promote_price": "0.00",
        "sales_volume": 1272,
        "comments_number": 0,
        "brokerage": "0.00"
      }
    ]
  }
}